<?xml version="1.0" encoding="utf-8"?>
<!-- Generator: Adobe Illustrator 16.0.0, SVG Export Plug-In . SVG Version: 6.00 Build 0)  -->
<!DOCTYPE svg PUBLIC "-//W3C//DTD SVG 1.1//EN" "http://www.w3.org/Graphics/SVG/1.1/DTD/svg11.dtd">
<svg version="1.1" id="Layer_1" xmlns="http://www.w3.org/2000/svg" xmlns:xlink="http://www.w3.org/1999/xlink" x="0px" y="0px"
	 width="40px" height="40px" viewBox="0 0 40 40" enable-background="new 0 0 40 40" xml:space="preserve">
<g>
	<path fill="#CCD9EA" stroke="#23517F" stroke-linecap="round" stroke-linejoin="round" stroke-miterlimit="10" d="M17.5,28.723
		c0,0.981-0.796,1.777-1.778,1.777H3.278c-0.982,0-1.778-0.796-1.778-1.777V16.277c0-0.981,0.796-1.777,1.778-1.777h12.444
		c0.982,0,1.778,0.796,1.778,1.777V28.723z"/>
	<path fill="#CCD9EA" stroke="#23517F" stroke-linecap="round" stroke-linejoin="round" stroke-miterlimit="10" d="M24.277,12.5
		h-5.101L19,7.5h-6.5c-3.313,0-6,2.687-6,6v1.222V16v14.277c0,1.228,0.995,2.223,2.222,2.223h15.555
		c1.228,0,2.223-0.995,2.223-2.223V14.722C26.5,13.495,25.505,12.5,24.277,12.5z"/>
	<path fill="#CCD9EA" stroke="#23517F" stroke-linecap="round" stroke-linejoin="round" stroke-miterlimit="10" d="M26,22.5h9.5
		c1.104,0,2,0.896,2,2v1c0,1.104-0.896,2-2,2H26"/>
	<path fill="#CCD9EA" stroke="#23517F" stroke-linecap="round" stroke-linejoin="round" stroke-miterlimit="10" d="M21,17.5h14.5
		c1.104,0,2,0.896,2,2v1c0,1.104-0.896,2-2,2H21"/>
	<path fill="#CCD9EA" stroke="#23517F" stroke-linecap="round" stroke-linejoin="round" stroke-miterlimit="10" d="M21,12.5h14.5
		c1.104,0,2,0.896,2,2v1c0,1.104-0.896,2-2,2H21"/>
	<path fill="#CCD9EA" stroke="#23517F" stroke-linecap="round" stroke-linejoin="round" stroke-miterlimit="10" d="M21,27.5h9.5
		c1.104,0,2,0.896,2,2v1c0,1.104-0.896,2-2,2H21"/>
	<path fill="#CCD9EA" stroke="#23517F" stroke-linecap="round" stroke-linejoin="round" stroke-miterlimit="10" d="M13,7.5h9.5
		c1.104,0,2,0.896,2,2v1c0,1.104-0.896,2-2,2H13"/>
	<path fill="none" stroke="#23517F" stroke-linecap="round" stroke-linejoin="round" stroke-miterlimit="10" d="M18.5,15v6.5
		c0,1.657-1.343,3-3,3H12"/>
	
		<line fill="none" stroke="#23517F" stroke-linecap="round" stroke-linejoin="round" stroke-miterlimit="10" x1="18.5" y1="29" x2="18.5" y2="22"/>
</g>
</svg>
