<?xml version="1.0" encoding="utf-8"?>
<!-- Generator: Adobe Illustrator 16.0.0, SVG Export Plug-In . SVG Version: 6.00 Build 0)  -->
<!DOCTYPE svg PUBLIC "-//W3C//DTD SVG 1.1//EN" "http://www.w3.org/Graphics/SVG/1.1/DTD/svg11.dtd">
<svg version="1.1" id="Layer_1" xmlns="http://www.w3.org/2000/svg" xmlns:xlink="http://www.w3.org/1999/xlink" x="0px" y="0px"
	 width="100px" height="100px" viewBox="0 0 100 100" enable-background="new 0 0 100 100" xml:space="preserve">
<circle fill="#3873AE" stroke="#23517F" stroke-linecap="round" stroke-linejoin="round" stroke-miterlimit="10" cx="49.75" cy="50.75" r="40"/>
<circle fill="#67AB49" stroke="#23517F" stroke-linecap="round" stroke-linejoin="round" stroke-miterlimit="10" cx="49.75" cy="50.75" r="29"/>
<circle fill="#FDBC33" stroke="#23517F" stroke-linecap="round" stroke-linejoin="round" stroke-miterlimit="10" cx="49.75" cy="50.75" r="17.173"/>
<g>
	<defs>
		<circle id="SVGID_1_" cx="49.75" cy="50.75" r="40"/>
	</defs>
	<clipPath id="SVGID_2_">
		<use xlink:href="#SVGID_1_"  overflow="visible"/>
	</clipPath>
	<g clip-path="url(#SVGID_2_)">
		<path fill="#CCD9EA" stroke="#23517F" stroke-linecap="round" stroke-linejoin="round" stroke-miterlimit="10" d="M57.5,22.723
			c0,0.981-0.796,1.777-1.777,1.777H43.277c-0.981,0-1.777-0.796-1.777-1.777V10.277c0-0.981,0.796-1.777,1.777-1.777h12.445
			c0.981,0,1.777,0.796,1.777,1.777V22.723z"/>
		<path fill="#CCD9EA" stroke="#23517F" stroke-linecap="round" stroke-linejoin="round" stroke-miterlimit="10" d="M59.5,31.277
			c0,1.228-0.995,2.223-2.223,2.223H41.723c-1.228,0-2.223-0.995-2.223-2.223V15.723c0-1.228,0.995-2.223,2.223-2.223h15.555
			c1.228,0,2.223,0.995,2.223,2.223V31.277z"/>
		<path fill="#CCD9EA" stroke="#23517F" stroke-linecap="round" stroke-linejoin="round" stroke-miterlimit="10" d="M59.5,35.5
			c0,1.104-0.896,2-2,2h-1c-1.104,0-2-0.896-2-2v-11c0-1.104,0.896-2,2-2h1c1.104,0,2,0.896,2,2V35.5z"/>
		<path fill="#CCD9EA" stroke="#23517F" stroke-linecap="round" stroke-linejoin="round" stroke-miterlimit="10" d="M54.5,35.5
			c0,1.104-0.896,2-2,2h-1c-1.104,0-2-0.896-2-2v-11c0-1.104,0.896-2,2-2h1c1.104,0,2,0.896,2,2V35.5z"/>
		<path fill="#CCD9EA" stroke="#23517F" stroke-linecap="round" stroke-linejoin="round" stroke-miterlimit="10" d="M49.5,35.5
			c0,1.104-0.896,2-2,2h-1c-1.104,0-2-0.896-2-2v-11c0-1.104,0.896-2,2-2h1c1.104,0,2,0.896,2,2V35.5z"/>
		<path fill="#CCD9EA" stroke="#23517F" stroke-linecap="round" stroke-linejoin="round" stroke-miterlimit="10" d="M44.5,35.5
			c0,1.104-0.896,2-2,2h-1c-1.104,0-2-0.896-2-2v-11c0-1.104,0.896-2,2-2h1c1.104,0,2,0.896,2,2V35.5z"/>
		<path fill="#CCD9EA" stroke="#23517F" stroke-linecap="round" stroke-linejoin="round" stroke-miterlimit="10" d="M49.5,19v2
			c0,1.104,0.896,2,2,2c-1.104,0-2,0.896-2,2v1c0,1.104,1.396,2.5,2.5,2.5h6c1.104,0,1.5-1.396,1.5-2.5v-1
			c0-0.018-0.005-0.033-0.005-0.05c0-0.008,0.005-0.014,0.005-0.021V21v-5.929V15c0-1.104-0.396-1.5-1.5-1.5h-9"/>
		
			<line fill="#CCD9EA" stroke="#23517F" stroke-linecap="round" stroke-linejoin="round" stroke-miterlimit="10" x1="51" y1="23.5" x2="56" y2="23.5"/>
	</g>
	<g clip-path="url(#SVGID_2_)">
		<path fill="#CCD9EA" stroke="#23517F" stroke-linecap="round" stroke-linejoin="round" stroke-miterlimit="10" d="M33.28,71.261
			c0.634,0.749,0.541,1.871-0.208,2.505l-9.496,8.045c-0.749,0.634-1.87,0.541-2.505-0.208l-8.044-9.496
			c-0.635-0.749-0.541-1.87,0.208-2.505l9.496-8.045c0.749-0.634,1.87-0.541,2.505,0.207L33.28,71.261z"/>
		<path fill="#CCD9EA" stroke="#23517F" stroke-linecap="round" stroke-linejoin="round" stroke-miterlimit="10" d="M41.152,66.63
			c0.793,0.937,0.677,2.339-0.259,3.133L29.024,79.816c-0.937,0.793-2.34,0.678-3.133-0.26L15.837,67.688
			c-0.793-0.936-0.677-2.338,0.26-3.133l11.869-10.053c0.937-0.793,2.339-0.678,3.132,0.258L41.152,66.63z"/>
		<path fill="#CCD9EA" stroke="#23517F" stroke-linecap="round" stroke-linejoin="round" stroke-miterlimit="10" d="M27.863,54.579
			l7.911-10.516c0.706-0.85,1.968-0.965,2.816-0.259l0.77,0.639c0.849,0.706,0.966,1.967,0.26,2.816l-7.911,10.515"/>
		<path fill="#CCD9EA" stroke="#23517F" stroke-linecap="round" stroke-linejoin="round" stroke-miterlimit="10" d="M40.354,61.046
			c0.714,0.843,0.609,2.104-0.233,2.818l-6.867,5.817c-0.843,0.714-2.105,0.609-2.818-0.233l-0.646-0.763
			c-0.714-0.844-0.609-2.105,0.233-2.818l6.866-5.818c0.844-0.713,2.105-0.609,2.82,0.233L40.354,61.046z"/>
		<path fill="#CCD9EA" stroke="#23517F" stroke-linecap="round" stroke-linejoin="round" stroke-miterlimit="10" d="M31.815,57.902
			l11.791-7.484c0.953-0.557,2.178-0.234,2.734,0.719l0.504,0.864c0.558,0.953,0.235,2.178-0.719,2.734l-11.79,7.483"/>
		<path fill="#CCD9EA" stroke="#23517F" stroke-linecap="round" stroke-linejoin="round" stroke-miterlimit="10" d="M42.822,65.507
			c0.714,0.843,0.609,2.105-0.233,2.819l-6.104,5.17c-0.842,0.715-2.104,0.61-2.818-0.232L33.02,72.5
			c-0.714-0.842-0.609-2.104,0.233-2.818l6.104-5.171c0.842-0.714,2.104-0.609,2.818,0.233L42.822,65.507z"/>
		<path fill="#CCD9EA" stroke="#23517F" stroke-linecap="round" stroke-linejoin="round" stroke-miterlimit="10" d="M26.969,68.451
			c0.843-0.713,0.947-1.976,0.233-2.818l3.232,3.815c0.713,0.843,1.976,0.947,2.818,0.233l0.763-0.646
			c0.843-0.714,0.947-1.977,0.233-2.818l-3.231-3.815l-1.293-1.526l-2.586-3.053c-0.714-0.842-1.975-0.946-2.818-0.232l-0.763,0.646
			c-0.014,0.012-0.022,0.024-0.035,0.035c-0.005,0.006-0.014,0.006-0.02,0.01l-2.998,2.54l-4.523,3.832l-0.055,0.046
			c-0.843,0.714-0.947,1.977-0.233,2.818l5.495,6.486"/>
		
			<line fill="#CCD9EA" stroke="#23517F" stroke-linecap="round" stroke-linejoin="round" stroke-miterlimit="10" x1="28.817" y1="67.541" x2="25.586" y2="63.725"/>
	</g>
	<g clip-path="url(#SVGID_2_)">
		<path fill="#CCD9EA" stroke="#23517F" stroke-linecap="round" stroke-linejoin="round" stroke-miterlimit="10" d="M75.265,59.141
			c0.579-0.792,1.691-0.965,2.483-0.385l10.044,7.348c0.793,0.58,0.966,1.692,0.386,2.484L80.83,78.633
			c-0.58,0.791-1.691,0.964-2.484,0.385L68.302,71.67c-0.793-0.58-0.965-1.691-0.385-2.484L75.265,59.141z"/>
		<path fill="#CCD9EA" stroke="#23517F" stroke-linecap="round" stroke-linejoin="round" stroke-miterlimit="10" d="M60.216,68.232
			l4.117,3.013l-2.81,4.139l5.246,3.838c2.674,1.956,6.428,1.374,8.385-1.3l0.722-0.986l0.755-1.031l8.43-11.523
			c0.724-0.99,0.509-2.381-0.481-3.106l-12.555-9.184c-0.99-0.725-2.381-0.509-3.106,0.481l-9.184,12.555
			C59.01,66.117,59.225,67.508,60.216,68.232z"/>
		<path fill="#CCD9EA" stroke="#23517F" stroke-linecap="round" stroke-linejoin="round" stroke-miterlimit="10" d="M64.73,59.145
			l-7.668-5.609c-0.892-0.651-1.086-1.903-0.434-2.795l0.591-0.807c0.652-0.891,1.904-1.085,2.795-0.433l7.667,5.609"/>
		<path fill="#CCD9EA" stroke="#23517F" stroke-linecap="round" stroke-linejoin="round" stroke-miterlimit="10" d="M65.813,66.132
			L54.11,57.571c-0.892-0.653-1.085-1.903-0.434-2.796l0.591-0.807c0.651-0.891,1.903-1.085,2.795-0.434l11.703,8.562"/>
		<path fill="#CCD9EA" stroke="#23517F" stroke-linecap="round" stroke-linejoin="round" stroke-miterlimit="10" d="M62.861,70.168
			l-11.703-8.562c-0.892-0.652-1.086-1.903-0.434-2.795l0.591-0.808c0.652-0.891,1.903-1.086,2.795-0.433l11.703,8.561"/>
		<path fill="#CCD9EA" stroke="#23517F" stroke-linecap="round" stroke-linejoin="round" stroke-miterlimit="10" d="M71.717,58.062
			l-7.666-5.609c-0.892-0.651-1.086-1.903-0.434-2.795l0.59-0.807c0.652-0.892,1.903-1.085,2.795-0.434l7.668,5.609"/>
		<path fill="#CCD9EA" stroke="#23517F" stroke-linecap="round" stroke-linejoin="round" stroke-miterlimit="10" d="M66.366,78.926
			l-7.668-5.607c-0.892-0.652-1.085-1.904-0.433-2.796l0.59-0.808c0.652-0.891,1.903-1.085,2.795-0.433l7.668,5.608"/>
		<path fill="none" stroke="#23517F" stroke-linecap="round" stroke-linejoin="round" stroke-miterlimit="10" d="M66.355,69.626
			l3.837-5.246c0.979-1.337,2.855-1.628,4.193-0.649l2.824,2.066"/>
		
			<line fill="none" stroke="#23517F" stroke-linecap="round" stroke-linejoin="round" stroke-miterlimit="10" x1="74.621" y1="58.326" x2="70.487" y2="63.977"/>
	</g>
</g>
<circle fill="none" stroke="#23517F" stroke-linecap="round" stroke-linejoin="round" stroke-miterlimit="10" cx="49.75" cy="50.75" r="40"/>
</svg>
